Conditional inference tree
…
weather <- read_csv("../data/weather_monthsum.csv")

Rows: 698 Columns: 75
── Column specification ────────────────────────────────────────────────────────
Delimiter: ","
chr  (1): site
dbl (74): year, strength_gtex, mean_dayl.s_Jan, mean_srad.wm2_Jan, mean_tmax...

ℹ Use `spec()` to retrieve the full column specification for this data.
ℹ Specify the column types or set `show_col_types = FALSE` to quiet this message.

weather

# A tibble: 698 × 75
    year site    strength_gtex mean_dayl.s_Jan mean_srad.wm2_Jan mean_tmax.c_Jan
   <dbl> <chr>           <dbl>           <dbl>             <dbl>           <dbl>
 1  1980 Altus,…          25.3          35873.              242.            10.2
 2  1980 Ames P…          27.2          35743.              215.             9.2
 3  1980 Artesi…          26            36359               279.            13.4
 4  1980 Auburn…          24.8          36420.              240.            13.9
 5  1980 Beevil…          24.5          37494.              277             19.9
 6  1980 Belle …          28.1          35873.              224.             9.7
 7  1980 Bossie…          25.9          36451.              221.            13.2
 8  1980 Chicka…          25.9          35760.              244              9.5
 9  1980 Clarkd…          26.1          35678.              265.             5.8
10  1980 Colleg…          27.1          36941.              254             15.8
# ℹ 688 more rows
# ℹ 69 more variables: mean_tmin.c_Jan <dbl>, mean_vp.pa_Jan <dbl>,
#   sum_prcp.mm_Jan <dbl>, mean_dayl.s_Feb <dbl>, mean_srad.wm2_Feb <dbl>,
#   mean_tmax.c_Feb <dbl>, mean_tmin.c_Feb <dbl>, mean_vp.pa_Feb <dbl>,
#   sum_prcp.mm_Feb <dbl>, mean_dayl.s_Mar <dbl>, mean_srad.wm2_Mar <dbl>,
#   mean_tmax.c_Mar <dbl>, mean_tmin.c_Mar <dbl>, mean_vp.pa_Mar <dbl>,
#   sum_prcp.mm_Mar <dbl>, mean_dayl.s_Apr <dbl>, mean_srad.wm2_Apr <dbl>, …
…
weather_split

<Training/Testing/Total>
<487/211/698>

# Setting train set 
weather_train <- training(weather_split)

weather_train

# A tibble: 487 × 75
    year site    strength_gtex mean_dayl.s_Jan mean_srad.wm2_Jan mean_tmax.c_Jan
   <dbl> <chr>           <dbl>           <dbl>             <dbl>           <dbl>
 1  1980 Altus,…          25.3          35873.              242.            10.2
 2  1980 Ames P…          27.2          35743.              215.             9.2
 3  1980 Artesi…          26            36359               279.            13.4
 4  1980 Belle …          28.1          35873.              224.             9.7
 5  1980 Bossie…          25.9          36451.              221.            13.2
 6  1980 Chicka…          25.9          35760.              244              9.5
 7  1980 Clarkd…          26.1          35678.              265.             5.8
 8  1980 Colleg…          27.1          36941.              254             15.8
 9  1980 Lamesa…          26.9          36390.              272.            12.5
10  1980 Mangum…          26.8          35808.              245.             9.6
# ℹ 477 more rows
# ℹ 69 more variables: mean_tmin.c_Jan <dbl>, mean_vp.pa_Jan <dbl>,
#   sum_prcp.mm_Jan <dbl>, mean_dayl.s_Feb <dbl>, mean_srad.wm2_Feb <dbl>,
#   mean_tmax.c_Feb <dbl>, mean_tmin.c_Feb <dbl>, mean_vp.pa_Feb <dbl>,
#   sum_prcp.mm_Feb <dbl>, mean_dayl.s_Mar <dbl>, mean_srad.wm2_Mar <dbl>,
#   mean_tmax.c_Mar <dbl>, mean_tmin.c_Mar <dbl>, mean_vp.pa_Mar <dbl>,
#   sum_prcp.mm_Mar <dbl>, mean_dayl.s_Apr <dbl>, mean_srad.wm2_Apr <dbl>, …

How many observations?

# Setting test split
weather_test <- testing(weather_split)

weather_test

# A tibble: 211 × 75
    year site    strength_gtex mean_dayl.s_Jan mean_srad.wm2_Jan mean_tmax.c_Jan
   <dbl> <chr>           <dbl>           <dbl>             <dbl>           <dbl>
 1  1980 Auburn…          24.8          36420.              240.            13.9
 2  1980 Beevil…          24.5          37494.              277             19.9
 3  1980 Coolid…          32.1          36328.              268.            19.8
 4  1980 Floren…          26.1          36000.              228.            12.3
 5  1980 Jackso…          28.5          35596.              209.             8.7
 6  1980 Marico…          24.8          36298.              275.            19.6
 7  1981 Bossie…          27.6          36451.              266.            13.4
 8  1981 Chilli…          26.1          35984.              274.            13.5
 9  1981 Floren…          27.9          36000.              269.            10.5
10  1981 Halfwa…          26.2          36000.              290.            12.4
# ℹ 201 more rows
# ℹ 69 more variables: mean_tmin.c_Jan <dbl>, mean_vp.pa_Jan <dbl>,
#   sum_prcp.mm_Jan <dbl>, mean_dayl.s_Feb <dbl>, mean_srad.wm2_Feb <dbl>,
#   mean_tmax.c_Feb <dbl>, mean_tmin.c_Feb <dbl>, mean_vp.pa_Feb <dbl>,
#   sum_prcp.mm_Feb <dbl>, mean_dayl.s_Mar <dbl>, mean_srad.wm2_Mar <dbl>,
#   mean_tmax.c_Mar <dbl>, mean_tmin.c_Mar <dbl>, mean_vp.pa_Mar <dbl>,
#   sum_prcp.mm_Mar <dbl>, mean_dayl.s_Apr <dbl>, mean_srad.wm2_Apr <dbl>, …
…
- Traninig the optimum hyperparameter values on the entire training set

- Using it to predict on the test set

These 2 steps can be completed in one function, as below:

final_fit <- last_fit(final_spec,
                weather_recipe,
                split = weather_split)

final_fit %>%
  collect_predictions()

# A tibble: 211 × 5
   .pred id                .row strength_gtex .config             
   <dbl> <chr>            <int>         <dbl> <chr>               
 1  30.2 train/test split     4          24.8 Preprocessor1_Model1
 2  30.2 train/test split     5          24.5 Preprocessor1_Model1
 3  29.6 train/test split    11          32.1 Preprocessor1_Model1
 4  30.2 train/test split    13          26.1 Preprocessor1_Model1
 5  30.2 train/test split    14          28.5 Preprocessor1_Model1
 6  29.6 train/test split    19          24.8 Preprocessor1_Model1
 7  30.2 train/test split    32          27.6 Preprocessor1_Model1
 8  29.6 train/test split    33          26.1 Preprocessor1_Model1
 9  29.6 train/test split    37          27.9 Preprocessor1_Model1
10  29.6 train/test split    38          26.2 Preprocessor1_Model1
# ℹ 201 more rows
…
